<?xml version="1.0" encoding="UTF-8" standalone="no"?>
<!-- Generator: Adobe Illustrator 19.0.0, SVG Export Plug-In . SVG Version: 6.00 Build 0)  -->

<svg
   version="1.1"
   id="Capa_1"
   x="0px"
   y="0px"
   viewBox="0 0 470 470"
   style="enable-background:new 0 0 470 470;"
   xml:space="preserve"
   sodipodi:docname="money-bag-svgrepo-com.svg"
   inkscape:version="1.1.1 (3bf5ae0d25, 2021-09-20, custom)"
   xmlns:inkscape="http://www.inkscape.org/namespaces/inkscape"
   xmlns:sodipodi="http://sodipodi.sourceforge.net/DTD/sodipodi-0.dtd"
   xmlns="http://www.w3.org/2000/svg"
   xmlns:svg="http://www.w3.org/2000/svg"><defs
   id="defs43"><rect
     x="140.12515"
     y="233.19398"
     width="161.0787"
     height="80.105269"
     id="rect41563" /></defs><sodipodi:namedview
   id="namedview41"
   pagecolor="#ffffff"
   bordercolor="#666666"
   borderopacity="1.0"
   inkscape:pageshadow="2"
   inkscape:pageopacity="0.0"
   inkscape:pagecheckerboard="0"
   showgrid="false"
   showguides="true"
   inkscape:zoom="1.3404255"
   inkscape:cx="87.285714"
   inkscape:cy="280.50794"
   inkscape:window-width="2560"
   inkscape:window-height="1367"
   inkscape:window-x="0"
   inkscape:window-y="0"
   inkscape:window-maximized="1"
   inkscape:current-layer="g8" />
<g
   id="g8">
	<path
   d="M448.816,387.909c-1.366-58.476-21.625-115.687-58.809-165.847c-28.486-38.425-65.916-70.278-105.456-90.287   c0.803-1.194,1.272-2.632,1.272-4.179c0-4.142-3.357-7.5-7.5-7.5h-10.189l40.708-85.099c1.111-2.324,0.953-5.056-0.421-7.235   c-1.373-2.179-3.769-3.501-6.345-3.501H167.924c-2.576,0-4.972,1.322-6.345,3.501s-1.532,4.911-0.42,7.235l40.707,85.099h-10.189   c-4.142,0-7.5,3.358-7.5,7.5c0,1.547,0.469,2.985,1.272,4.179c-39.54,20.009-76.97,51.862-105.455,90.287   c-37.184,50.16-57.443,107.371-58.809,165.847C8.868,391.496,0,402.812,0,416.217c0,16.278,13.244,29.522,29.522,29.522h410.957   c16.278,0,29.521-13.244,29.521-29.522C470,402.812,461.132,391.496,448.816,387.909z M440.479,430.739H29.522   c-8.007,0-14.522-6.515-14.522-14.522c0-7.752,6.039-14.084,13.775-14.475h19.83c4.142,0,7.5-3.358,7.5-7.5s-3.358-7.5-7.5-7.5   H36.228c3.577-121.798,93.631-219.876,178.907-251.646h39.73c85.277,31.769,175.331,129.848,178.907,251.646h-12.377   c-4.143,0-7.5,3.358-7.5,7.5s3.357,7.5,7.5,7.5h19.83c7.735,0.391,13.774,6.723,13.774,14.475   C455,424.224,448.485,430.739,440.479,430.739z M213.585,59.261c4.142,0,7.5-3.358,7.5-7.5v-12.5h69.09l-38.668,80.835h-33.013   l-38.668-80.835h26.259v12.5C206.085,55.903,209.443,59.261,213.585,59.261z"
   id="path2"
   style="fill:#ffffff;fill-opacity:1" />
	<path
   d="M391.396,386.742h-60c-4.143,0-7.5,3.358-7.5,7.5s3.357,7.5,7.5,7.5h60c4.143,0,7.5-3.358,7.5-7.5   S395.538,386.742,391.396,386.742z"
   id="path4"
   style="fill:#ffffff;fill-opacity:1" />
	
<text
   xml:space="preserve"
   id="text41561"
   style="font-style:normal;font-weight:normal;font-size:40px;line-height:1.25;font-family:sans-serif;white-space:pre;shape-inside:url(#rect41563);fill:#ffffff;fill-opacity:1;stroke:none"
   transform="matrix(1.0162601,0,0,1.071428,21.227987,-6.0146028)"><tspan
     x="140.125"
     y="294.46629"
     id="tspan102752"><tspan
       style="font-weight:600;font-size:66.6667px;font-family:Montserrat;-inkscape-font-specification:'Montserrat, Semi-Bold'"
       id="tspan102750">PND</tspan></tspan></text></g>
<g
   id="g10">
</g>
<g
   id="g12">
</g>
<g
   id="g14">
</g>
<g
   id="g16">
</g>
<g
   id="g18">
</g>
<g
   id="g20">
</g>
<g
   id="g22">
</g>
<g
   id="g24">
</g>
<g
   id="g26">
</g>
<g
   id="g28">
</g>
<g
   id="g30">
</g>
<g
   id="g32">
</g>
<g
   id="g34">
</g>
<g
   id="g36">
</g>
<g
   id="g38">
</g>
</svg>
