<?xml version="1.0" encoding="UTF-8" standalone="no"?>
<svg
   width="40px"
   height="40px"
   viewBox="0 0 48 48"
   version="1"
   enable-background="new 0 0 40 40"
   id="svg12"
   xmlns="http://www.w3.org/2000/svg"
   xmlns:svg="http://www.w3.org/2000/svg">
  <defs
     id="defs16" />
  <path
     d="M38,44H12V4h26c2.2,0,4,1.8,4,4v32C42,42.2,40.2,44,38,44z"
     id="path2"
     style="stroke:#000000;stroke-opacity:1;stroke-linejoin:round;stroke-width:2;stroke-miterlimit:4;stroke-dasharray:none;fill:#a0bf7d;fill-opacity:1" />
  <path
     d="M10,4h2v40h-2c-2.2,0-4-1.8-4-4V8C6,5.8,7.8,4,10,4z"
     id="path4"
     style="stroke:#000000;stroke-opacity:1;stroke-width:2;stroke-miterlimit:4;stroke-dasharray:none;fill:#93a96f;fill-opacity:1" />
  <g
     id="g10">
    <circle
       cx="26"
       cy="20"
       r="4"
       id="circle6"
       style="fill:#93a96f;fill-opacity:1" />
    <path
       d="M33,30c0,0-1.9-4-7-4c-5.1,0-7,4-7,4v2h14V30z"
       id="path8"
       style="fill:#93a96f;fill-opacity:1" />
  </g>
</svg>
