<?xml version="1.0" encoding="UTF-8" standalone="no"?>
<!-- Generator: Adobe Illustrator 19.0.0, SVG Export Plug-In . SVG Version: 6.00 Build 0)  -->

<svg
   version="1.1"
   id="Layer_1"
   x="0px"
   y="0px"
   viewBox="0 0 332.016 332.016"
   style="enable-background:new 0 0 332.016 332.016;"
   xml:space="preserve"
   sodipodi:docname="wifi.svg"
   inkscape:version="1.1.2 (0a00cf5339, 2022-02-04, custom)"
   xmlns:inkscape="http://www.inkscape.org/namespaces/inkscape"
   xmlns:sodipodi="http://sodipodi.sourceforge.net/DTD/sodipodi-0.dtd"
   xmlns="http://www.w3.org/2000/svg"
   xmlns:svg="http://www.w3.org/2000/svg"><defs
   id="defs49" /><sodipodi:namedview
   id="namedview47"
   pagecolor="#505050"
   bordercolor="#ffffff"
   borderopacity="1"
   inkscape:pageshadow="0"
   inkscape:pageopacity="0"
   inkscape:pagecheckerboard="1"
   showgrid="false"
   inkscape:zoom="1.897499"
   inkscape:cx="101.18583"
   inkscape:cy="102.76685"
   inkscape:window-width="2560"
   inkscape:window-height="1343"
   inkscape:window-x="0"
   inkscape:window-y="0"
   inkscape:window-maximized="1"
   inkscape:current-layer="g14" />
<g
   id="g14">
	<g
   id="g10">
		<path
   style="fill:#a0bf7d;fill-opacity:1"
   d="M29.711,141.841l-22.21-22.21c42.401-42.403,98.694-65.755,158.509-65.755    c59.813,0,116.104,23.351,158.507,65.751l-22.21,22.21c-36.469-36.468-84.874-56.552-136.297-56.552    C114.585,85.285,66.18,105.37,29.711,141.841z"
   id="path2" />
		<path
   style="fill:#a0bf7d;fill-opacity:1"
   d="M71.445,183.575l-22.211-22.21c31.237-31.237,72.709-48.439,116.775-48.439    c44.067,0,85.537,17.201,116.774,48.437l-22.21,22.21c-25.304-25.303-58.888-39.238-94.564-39.238S96.749,158.271,71.445,183.575z    "
   id="path4" />
		<path
   style="fill:#a0bf7d;fill-opacity:1"
   d="M113.18,225.311l-22.211-22.21c20.072-20.071,46.723-31.125,75.041-31.125    s54.967,11.053,75.039,31.123l-22.211,22.21c-14.138-14.137-32.898-21.923-52.828-21.923    C146.081,203.385,127.318,211.172,113.18,225.311z"
   id="path6" />
		<path
   style="fill:#a0bf7d;fill-opacity:1"
   d="M166.01,231.654c-12.836,0-24.457,5.204-32.871,13.615l32.871,32.871l32.871-32.871    C190.468,236.857,178.846,231.654,166.01,231.654z"
   id="path8" />
	</g>
	<path
   style="fill:#010000;fill-opacity:1"
   d="M166.01,164.476c-30.322,0-58.855,11.834-80.344,33.322c-1.407,1.406-2.197,3.314-2.197,5.303   s0.79,3.897,2.197,5.303l22.211,22.21c1.464,1.464,3.384,2.197,5.303,2.197s3.839-0.732,5.304-2.197   c12.722-12.722,29.601-19.729,47.526-19.729s34.804,7.006,47.525,19.727c2.928,2.929,7.678,2.929,10.605,0l22.211-22.21   c1.407-1.406,2.197-3.314,2.197-5.303s-0.79-3.897-2.197-5.304C224.863,176.309,196.331,164.476,166.01,164.476z M218.602,214.938   c-14.761-12.336-33.172-19.053-52.592-19.053c-19.421,0-37.832,6.716-52.594,19.055l-11.644-11.643   c17.893-15.413,40.433-23.822,64.237-23.822s46.343,8.408,64.235,23.82L218.602,214.938z M329.819,114.324   C286.001,70.506,227.825,46.375,166.01,46.375c-61.818,0-119.995,24.132-163.813,67.952c-2.929,2.929-2.929,7.678,0,10.606   l22.21,22.21c1.407,1.407,3.314,2.197,5.304,2.197s3.896-0.79,5.304-2.197c35.052-35.054,81.573-54.359,130.995-54.359   c49.421,0,95.941,19.304,130.993,54.355c2.929,2.928,7.677,2.93,10.607,0l22.21-22.21c1.406-1.406,2.196-3.314,2.196-5.303   S331.227,115.73,329.819,114.324z M302.21,131.327c-37.198-34.584-85.274-53.542-136.2-53.542   c-50.928,0-99.004,18.959-136.202,53.545l-11.612-11.61C58.501,82.04,110.7,61.375,166.01,61.375   c55.308,0,107.505,20.663,147.811,58.341L302.21,131.327z M166.01,224.154c-14.418,0-27.975,5.615-38.174,15.811   c-1.406,1.407-2.197,3.314-2.197,5.304s0.79,3.897,2.196,5.304l32.871,32.871c1.465,1.464,3.385,2.197,5.304,2.197   s3.839-0.732,5.304-2.197l32.871-32.871c1.406-1.407,2.196-3.314,2.196-5.304s-0.79-3.897-2.197-5.303   C193.985,229.769,180.429,224.154,166.01,224.154z M166.01,267.534l-21.758-21.757c6.38-4.308,13.892-6.623,21.758-6.623   c7.867,0,15.379,2.315,21.758,6.622L166.01,267.534z M166.01,105.426c-46.07,0-89.425,17.983-122.079,50.636   c-1.406,1.406-2.196,3.314-2.196,5.303s0.79,3.897,2.197,5.303l22.21,22.21c1.465,1.465,3.385,2.197,5.304,2.197   s3.839-0.732,5.304-2.197c23.887-23.888,55.587-37.043,89.261-37.043s65.374,13.155,89.262,37.041   c2.928,2.929,7.677,2.929,10.606,0l22.21-22.21c1.406-1.406,2.196-3.314,2.196-5.303s-0.79-3.897-2.197-5.303   C255.435,123.408,212.08,105.426,166.01,105.426z M260.438,173.103c-26.003-23.442-59.252-36.268-94.428-36.268   s-68.425,12.827-94.428,36.271l-11.618-11.618c29.115-26.536,66.485-41.062,106.046-41.062s76.931,14.525,106.045,41.06   L260.438,173.103z"
   id="path12" />
</g>
<g
   id="g16">
</g>
<g
   id="g18">
</g>
<g
   id="g20">
</g>
<g
   id="g22">
</g>
<g
   id="g24">
</g>
<g
   id="g26">
</g>
<g
   id="g28">
</g>
<g
   id="g30">
</g>
<g
   id="g32">
</g>
<g
   id="g34">
</g>
<g
   id="g36">
</g>
<g
   id="g38">
</g>
<g
   id="g40">
</g>
<g
   id="g42">
</g>
<g
   id="g44">
</g>
</svg>
