<?xml version="1.0" encoding="UTF-8" standalone="no"?>
<!-- Generator: Adobe Illustrator 19.0.0, SVG Export Plug-In . SVG Version: 6.00 Build 0)  -->

<svg
   version="1.1"
   id="Layer_1"
   x="0px"
   y="0px"
   viewBox="0 0 512 512"
   style="enable-background:new 0 0 512 512;"
   xml:space="preserve"
   sodipodi:docname="pc.svg"
   inkscape:version="1.1.2 (0a00cf5339, 2022-02-04, custom)"
   xmlns:inkscape="http://www.inkscape.org/namespaces/inkscape"
   xmlns:sodipodi="http://sodipodi.sourceforge.net/DTD/sodipodi-0.dtd"
   xmlns="http://www.w3.org/2000/svg"
   xmlns:svg="http://www.w3.org/2000/svg"><defs
   id="defs47" /><sodipodi:namedview
   id="namedview45"
   pagecolor="#505050"
   bordercolor="#ffffff"
   borderopacity="1"
   inkscape:pageshadow="0"
   inkscape:pageopacity="0"
   inkscape:pagecheckerboard="1"
   showgrid="false"
   inkscape:zoom="0.8700728"
   inkscape:cx="21.837253"
   inkscape:cy="362.03867"
   inkscape:window-width="2560"
   inkscape:window-height="1343"
   inkscape:window-x="0"
   inkscape:window-y="0"
   inkscape:window-maximized="1"
   inkscape:current-layer="Layer_1" />
<path
   style="fill:#a0bf7d;fill-opacity:1"
   d="M51.2,409.6c-21.171,0-38.4-17.229-38.4-38.4v-64h486.4v64c0,21.171-17.229,38.4-38.4,38.4H51.2z"
   id="path2" />
<path
   style="fill:#a0bf7d;fill-opacity:1"
   d="M12.8,307.2V64c0-21.171,17.229-38.4,38.4-38.4h409.6c21.171,0,38.4,17.229,38.4,38.4v243.2H12.8z"
   id="path4" />
<polygon
   style="fill:#a0bf7d;fill-opacity:1"
   points="181.333,486.4 194.133,409.6 317.867,409.6 330.667,486.4 "
   id="polygon6" />
<g
   id="g12">
	<path
   style="fill:#000000;fill-opacity:1"
   d="M460.8,12.8H51.2C22.972,12.8,0,35.772,0,64v307.2c0,28.228,22.972,51.2,51.2,51.2h127.821   l-8.533,51.2H140.8c-7.074,0-12.8,5.726-12.8,12.8s5.726,12.8,12.8,12.8h230.4c7.074,0,12.8-5.726,12.8-12.8s-5.726-12.8-12.8-12.8   h-29.696l-8.533-51.2H460.8c28.237,0,51.2-22.972,51.2-51.2V64C512,35.772,489.037,12.8,460.8,12.8z M196.446,473.6l8.533-51.2   h102.05l8.533,51.2H196.446z M486.4,371.2c0,14.14-11.46,25.6-25.6,25.6H51.2c-14.14,0-25.6-11.46-25.6-25.6V320h460.8V371.2z    M486.4,294.4H25.6V64c0-14.14,11.46-25.6,25.6-25.6h409.6c14.14,0,25.6,11.46,25.6,25.6V294.4z"
   id="path8" />
	<path
   style="fill:#000000;fill-opacity:1"
   d="M217.6,371.2h76.8c7.074,0,12.8-5.726,12.8-12.8s-5.726-12.8-12.8-12.8h-76.8   c-7.074,0-12.8,5.726-12.8,12.8S210.526,371.2,217.6,371.2z"
   id="path10" />
</g>
<g
   id="g14">
</g>
<g
   id="g16">
</g>
<g
   id="g18">
</g>
<g
   id="g20">
</g>
<g
   id="g22">
</g>
<g
   id="g24">
</g>
<g
   id="g26">
</g>
<g
   id="g28">
</g>
<g
   id="g30">
</g>
<g
   id="g32">
</g>
<g
   id="g34">
</g>
<g
   id="g36">
</g>
<g
   id="g38">
</g>
<g
   id="g40">
</g>
<g
   id="g42">
</g>
</svg>
