{
    "en": {
        "badPasswordModalBody": "The password you have chosen does not look very strong :(\n\n\nWe recommend that your password meets the following criteria:\n\n• 16 characters or more\n• Randomly generated\n• No dictionary words\n\n\nWould you like to choose a different password?"
    }
}